{
  "swagger": "2.0",
  "info": {},
  "paths": {
    "/authors": {
      "get": {
        "description": "Список авторов",
        "tags": [
          "author"
        ],
        "operationId": "getAuthorRequest",
        "responses": {
          "200": {
            "$ref": "#/responses/getAuthorResponse"
          }
        }
      },
      "post": {
        "description": "Добавление автора",
        "tags": [
          "author"
        ],
        "operationId": "authorAddRequest",
        "parameters": [
          {
            "type": "string",
            "x-go-name": "Firstname",
            "description": "Имя автора",
            "name": "firstname",
            "in": "formData",
            "required": true
          },
          {
            "type": "string",
            "x-go-name": "SecondName",
            "description": "Фамилия автора",
            "name": "secondname",
            "in": "formData",
            "required": true
          }
        ],
        "responses": {
          "200": {
            "description": " Added successfully."
          }
        }
      }
    },
    "/authors/top": {
      "get": {
        "description": "список самых читаемых авторов",
        "tags": [
          "author"
        ],
        "operationId": "getTopAuthorsRequest",
        "responses": {
          "200": {
            "$ref": "#/responses/getTopAuthorsResponse"
          }
        }
      }
    },
    "/books": {
      "get": {
        "description": "Список книг",
        "tags": [
          "book"
        ],
        "operationId": "getBookRequest",
        "responses": {
          "200": {
            "$ref": "#/responses/getBookResponse"
          }
        }
      },
      "post": {
        "description": "Добавление книги",
        "tags": [
          "book"
        ],
        "operationId": "bookAddRequest",
        "parameters": [
          {
            "type": "string",
            "x-go-name": "Title",
            "description": "Название книги",
            "name": "title",
            "in": "formData",
            "required": true
          },
          {
            "type": "integer",
            "format": "int64",
            "x-go-name": "AuthorID",
            "description": "ID автора",
            "name": "author_id",
            "in": "formData",
            "required": true
          }
        ],
        "responses": {
          "200": {
            "description": " Added successfully."
          }
        }
      }
    },
    "/books/borrow": {
      "post": {
        "description": "Получение книги",
        "tags": [
          "book"
        ],
        "operationId": "borrowBookRequest",
        "parameters": [
          {
            "type": "integer",
            "format": "int64",
            "x-go-name": "BookID",
            "description": "ID книги",
            "name": "book_id",
            "in": "formData"
          },
          {
            "type": "integer",
            "format": "int64",
            "x-go-name": "UserID",
            "description": "ID пользователя",
            "name": "user_id",
            "in": "formData"
          }
        ],
        "responses": {
          "200": {
            "description": " Borrowed successfuly."
          }
        }
      }
    },
    "/books/return": {
      "post": {
        "description": "Сдача книги",
        "tags": [
          "book"
        ],
        "operationId": "returnBookRequest",
        "parameters": [
          {
            "type": "integer",
            "format": "int64",
            "x-go-name": "BookID",
            "description": "ID книги",
            "name": "book_id",
            "in": "formData"
          }
        ],
        "responses": {
          "200": {
            "description": " Returned successfuly."
          }
        }
      }
    },
    "/books/{id}": {
      "get": {
        "description": "Получение книги по id",
        "tags": [
          "book"
        ],
        "operationId": "getBookByIDRequest",
        "parameters": [
          {
            "type": "string",
            "x-go-name": "ID",
            "description": "ID книги",
            "name": "id",
            "in": "path",
            "required": true
          }
        ],
        "responses": {
          "200": {
            "$ref": "#/responses/getBookByIDResponse"
          }
        }
      }
    },
    "/users": {
      "get": {
        "description": "Список юзеров",
        "tags": [
          "user"
        ],
        "operationId": "getUserRequest",
        "responses": {
          "200": {
            "$ref": "#/responses/getUserResponse"
          }
        }
      },
      "post": {
        "description": "Добавление юзера",
        "tags": [
          "user"
        ],
        "operationId": "userAddRequest",
        "parameters": [
          {
            "type": "string",
            "x-go-name": "Username",
            "description": "Имя пользователя",
            "name": "username",
            "in": "formData",
            "required": true
          },
          {
            "type": "string",
            "x-go-name": "Firstname",
            "description": "Реальное имя пользователя",
            "name": "firstname",
            "in": "formData",
            "required": true
          }
        ],
        "responses": {
          "200": {
            "description": " Added successfully."
          }
        }
      }
    }
  },
  "responses": {
    "getAuthorResponse": {
      "description": "",
      "schema": {
        "type": "array",
        "items": {}
      }
    },
    "getBookByIDResponse": {
      "description": ""
    },
    "getBookResponse": {
      "description": "",
      "schema": {
        "type": "array",
        "items": {}
      }
    },
    "getTopAuthorsResponse": {
      "description": "",
      "schema": {
        "type": "array",
        "items": {}
      }
    },
    "getUserResponse": {
      "description": "",
      "schema": {
        "type": "array",
        "items": {}
      }
    }
  }
}